Slowniki_do_analizy_sentymentu__Biden
…
# Sprawdzenie najczęściej występujących słów
# które rzeczywiście odzwierciedlają treść

# Analiza sentymentu ----

# Analiza sentymentu przy użyciu słownika Loughran ----

# Użycie inner_join()
tidy_tokeny %>%
  inner_join(get_sentiments("loughran"), relationship = "many-to-many")

## # A tibble: 94 × 3
##     freq word      sentiment  
##    <dbl> <chr>     <chr>      
##  1    12 believe   uncertainty
##  2    11 could     uncertainty
##  3     8 almost    uncertainty
##  4     6 beautiful positive   
##  5     5 better    positive   
##  6     5 dangerous negative   
##  7     4 able      positive   
##  8     4 cut       negative   
##  9     4 defend    negative   
## 10     3 against   negative   
## # ℹ 84 more rows
…
# Zliczanie, które słowa są najczęstsze
# dla danego sentymentu
sentiment_review %>%
  count(word, sentiment) %>%
  arrange(desc(n))

## # A tibble: 74 × 3
##    word       sentiment       n
##    <chr>      <chr>       <int>
##  1 believe    uncertainty     3
##  2 better     positive        3
##  3 crime      litigious       3
##  4 crime      negative        3
##  5 achieved   positive        2
##  6 beautiful  positive        2
##  7 best       positive        2
##  8 challenge  negative        2
##  9 claim      litigious       2
## 10 corruption negative        2
## # ℹ 64 more rows
…
# Zliczanie, które słowa są najczęstsze
# dla danego sentymentu
sentiment_review_nrc %>%
  count(word, sentiment) %>%
  arrange(desc(n))

## # A tibble: 1,147 × 3
##    word   sentiment        n
##    <chr>  <chr>        <int>
##  1 time   anticipation     5
##  2 war    fear             5
##  3 war    negative         5
##  4 good   anticipation     4
##  5 good   joy              4
##  6 good   positive         4
##  7 good   surprise         4
##  8 good   trust            4
##  9 nation trust            4
## 10 baby   joy              3
## # ℹ 1,137 more rows
…
## # A tibble: 2 × 2
##   sentiment     n
##   <chr>     <int>
## 1 negative    198
## 2 positive    222

# Zliczanie, które słowa są najczęstsze
# dla danego sentymentu
sentiment_review_bing %>%
  count(word, sentiment) %>%
  arrange(desc(n))

## # A tibble: 327 × 3
##    word   sentiment     n
##    <chr>  <chr>     <int>
##  1 good   positive      4
##  2 right  positive      4
##  3 well   positive      4
##  4 badly  negative      3
##  5 better positive      3
##  6 crime  negative      3
##  7 dead   negative      3
##  8 death  negative      3
##  9 great  positive      3
## 10 hard   negative      3
## # ℹ 317 more rows
…
# Zliczanie, które słowa są najczęstsze
# dla danego sentymentu
sentiment_review_afinn %>%
  count(word, value) %>%
  arrange(desc(n))

## # A tibble: 299 × 3
##    word      value     n
##    <chr>     <dbl> <int>
##  1 war          -2     5
##  2 good          3     4
##  3 badly        -3     3
##  4 better        2     3
##  5 big           1     3
##  6 crime        -3     3
##  7 dead         -3     3
##  8 death        -2     3
##  9 forgotten    -1     3
## 10 great         3     3
## # ℹ 289 more rows
…
